{
  "last-edit": "32e8fb7f-f8ed-44ff-859e-ec209aab8b21",
  "recent-items": [
    "0077dfd6-e589-4b80-8288-50efa7da43d0",
    "0d1d7bab-8a13-4f98-8247-eb678ce19359",
    "998bdd53-7ee0-4b3e-82c0-ec83f492a2b0",
    "aeab3dc6-3bde-422a-bcee-a51fd15ffd4b",
    "32e8fb7f-f8ed-44ff-859e-ec209aab8b21"
  ]
}
