{
  "__type__": "cc.SpriteFrame",
  "content": {
    "name": "coin",
    "texture": "7cc86f9e-0756-487a-b453-8cb566d5f798",
    "atlas": "",
    "rect": [
      91,
      91,
      1018,
      1066
    ],
    "offset": [
      0,
      -24
    ],
    "originalSize": [
      1200,
      1200
    ],
    "capInsets": [
      0,
      0,
      0,
      0
    ]
  }
}