{
  "__type__": "cc.SpriteFrame",
  "content": {
    "name": "Tile (5)",
    "texture": "eada56b8-9e47-4ddf-889c-d20a5b6d3b35",
    "atlas": "",
    "rect": [
      0,
      0,
      128,
      128
    ],
    "offset": [
      0,
      0
    ],
    "originalSize": [
      128,
      128
    ],
    "capInsets": [
      0,
      0,
      0,
      0
    ]
  }
}