{
  "__type__": "cc.SpriteFrame",
  "content": {
    "name": "Bone (2)",
    "texture": "9580d8e6-8dae-477d-84d3-3e25f00b568c",
    "atlas": "",
    "rect": [
      49,
      42,
      59,
      53
    ],
    "offset": [
      14.5,
      -4.5
    ],
    "originalSize": [
      128,
      128
    ],
    "capInsets": [
      0,
      0,
      0,
      0
    ]
  }
}